<?xml version='1.0' encoding='utf-8'?>
<svg xmlns:xlink="http://www.w3.org/1999/xlink" xmlns="http://www.w3.org/2000/svg" id="chart-ef132b7b-e509-41ea-8730-d2baa5ebc260" class="pygal-chart" viewBox="0 0 30 30"><!--Generated with pygal 2.3.1 (lxml) ©Kozea 2012-2016 on 2017-05-25--><!--http://pygal.org--><!--http://github.com/Kozea/pygal--><defs><style type="text/css">#chart-ef132b7b-e509-41ea-8730-d2baa5ebc260{-webkit-user-select:none;-webkit-font-smoothing:antialiased;font-family:Consolas,"Liberation Mono",Menlo,Courier,monospace}#chart-ef132b7b-e509-41ea-8730-d2baa5ebc260 .title{font-family:Consolas,"Liberation Mono",Menlo,Courier,monospace;font-size:16px}#chart-ef132b7b-e509-41ea-8730-d2baa5ebc260 .legends .legend text{font-family:Consolas,"Liberation Mono",Menlo,Courier,monospace;font-size:14px}#chart-ef132b7b-e509-41ea-8730-d2baa5ebc260 .axis text{font-family:Consolas,"Liberation Mono",Menlo,Courier,monospace;font-size:10px}#chart-ef132b7b-e509-41ea-8730-d2baa5ebc260 .axis text.major{font-family:Consolas,"Liberation Mono",Menlo,Courier,monospace;font-size:10px}#chart-ef132b7b-e509-41ea-8730-d2baa5ebc260 .text-overlay text.value{font-family:Consolas,"Liberation Mono",Menlo,Courier,monospace;font-size:16px}#chart-ef132b7b-e509-41ea-8730-d2baa5ebc260 .text-overlay text.label{font-family:Consolas,"Liberation Mono",Menlo,Courier,monospace;font-size:10px}#chart-ef132b7b-e509-41ea-8730-d2baa5ebc260 .tooltip{font-family:Consolas,"Liberation Mono",Menlo,Courier,monospace;font-size:14px}#chart-ef132b7b-e509-41ea-8730-d2baa5ebc260 text.no_data{font-family:Consolas,"Liberation Mono",Menlo,Courier,monospace;font-size:64px}
#chart-ef132b7b-e509-41ea-8730-d2baa5ebc260{background-color:rgba(249,249,249,1)}#chart-ef132b7b-e509-41ea-8730-d2baa5ebc260 path,#chart-ef132b7b-e509-41ea-8730-d2baa5ebc260 line,#chart-ef132b7b-e509-41ea-8730-d2baa5ebc260 rect,#chart-ef132b7b-e509-41ea-8730-d2baa5ebc260 circle{-webkit-transition:150ms;-moz-transition:150ms;transition:150ms}#chart-ef132b7b-e509-41ea-8730-d2baa5ebc260 .graph &gt; .background{fill:rgba(249,249,249,1)}#chart-ef132b7b-e509-41ea-8730-d2baa5ebc260 .plot &gt; .background{fill:rgba(255,255,255,1)}#chart-ef132b7b-e509-41ea-8730-d2baa5ebc260 .graph{fill:rgba(0,0,0,.87)}#chart-ef132b7b-e509-41ea-8730-d2baa5ebc260 text.no_data{fill:rgba(0,0,0,1)}#chart-ef132b7b-e509-41ea-8730-d2baa5ebc260 .title{fill:rgba(0,0,0,1)}#chart-ef132b7b-e509-41ea-8730-d2baa5ebc260 .legends .legend text{fill:rgba(0,0,0,.87)}#chart-ef132b7b-e509-41ea-8730-d2baa5ebc260 .legends .legend:hover text{fill:rgba(0,0,0,1)}#chart-ef132b7b-e509-41ea-8730-d2baa5ebc260 .axis .line{stroke:rgba(0,0,0,1)}#chart-ef132b7b-e509-41ea-8730-d2baa5ebc260 .axis .guide.line{stroke:rgba(0,0,0,.54)}#chart-ef132b7b-e509-41ea-8730-d2baa5ebc260 .axis .major.line{stroke:rgba(0,0,0,.87)}#chart-ef132b7b-e509-41ea-8730-d2baa5ebc260 .axis text.major{fill:rgba(0,0,0,1)}#chart-ef132b7b-e509-41ea-8730-d2baa5ebc260 .axis.y .guides:hover .guide.line,#chart-ef132b7b-e509-41ea-8730-d2baa5ebc260 .line-graph .axis.x .guides:hover .guide.line,#chart-ef132b7b-e509-41ea-8730-d2baa5ebc260 .stackedline-graph .axis.x .guides:hover .guide.line,#chart-ef132b7b-e509-41ea-8730-d2baa5ebc260 .xy-graph .axis.x .guides:hover .guide.line{stroke:rgba(0,0,0,1)}#chart-ef132b7b-e509-41ea-8730-d2baa5ebc260 .axis .guides:hover text{fill:rgba(0,0,0,1)}#chart-ef132b7b-e509-41ea-8730-d2baa5ebc260 .reactive{fill-opacity:.7;stroke-opacity:.8}#chart-ef132b7b-e509-41ea-8730-d2baa5ebc260 .ci{stroke:rgba(0,0,0,.87)}#chart-ef132b7b-e509-41ea-8730-d2baa5ebc260 .reactive.active,#chart-ef132b7b-e509-41ea-8730-d2baa5ebc260 .active .reactive{fill-opacity:.8;stroke-opacity:.9;stroke-width:4}#chart-ef132b7b-e509-41ea-8730-d2baa5ebc260 .ci .reactive.active{stroke-width:1.5}#chart-ef132b7b-e509-41ea-8730-d2baa5ebc260 .series text{fill:rgba(0,0,0,1)}#chart-ef132b7b-e509-41ea-8730-d2baa5ebc260 .tooltip rect{fill:rgba(255,255,255,1);stroke:rgba(0,0,0,1);-webkit-transition:opacity 150ms;-moz-transition:opacity 150ms;transition:opacity 150ms}#chart-ef132b7b-e509-41ea-8730-d2baa5ebc260 .tooltip .label{fill:rgba(0,0,0,.87)}#chart-ef132b7b-e509-41ea-8730-d2baa5ebc260 .tooltip .label{fill:rgba(0,0,0,.87)}#chart-ef132b7b-e509-41ea-8730-d2baa5ebc260 .tooltip .legend{font-size:.8em;fill:rgba(0,0,0,.54)}#chart-ef132b7b-e509-41ea-8730-d2baa5ebc260 .tooltip .x_label{font-size:.6em;fill:rgba(0,0,0,1)}#chart-ef132b7b-e509-41ea-8730-d2baa5ebc260 .tooltip .xlink{font-size:.5em;text-decoration:underline}#chart-ef132b7b-e509-41ea-8730-d2baa5ebc260 .tooltip .value{font-size:1.5em}#chart-ef132b7b-e509-41ea-8730-d2baa5ebc260 .bound{font-size:.5em}#chart-ef132b7b-e509-41ea-8730-d2baa5ebc260 .max-value{font-size:.75em;fill:rgba(0,0,0,.54)}#chart-ef132b7b-e509-41ea-8730-d2baa5ebc260 .map-element{fill:rgba(255,255,255,1);stroke:rgba(0,0,0,.54) !important}#chart-ef132b7b-e509-41ea-8730-d2baa5ebc260 .map-element .reactive{fill-opacity:inherit;stroke-opacity:inherit}#chart-ef132b7b-e509-41ea-8730-d2baa5ebc260 .color-0,#chart-ef132b7b-e509-41ea-8730-d2baa5ebc260 .color-0 a:visited{stroke:#F44336;fill:#F44336}#chart-ef132b7b-e509-41ea-8730-d2baa5ebc260 .text-overlay .color-0 text{fill:black}
#chart-ef132b7b-e509-41ea-8730-d2baa5ebc260 text.no_data{text-anchor:middle}#chart-ef132b7b-e509-41ea-8730-d2baa5ebc260 .guide.line{fill:none}#chart-ef132b7b-e509-41ea-8730-d2baa5ebc260 .centered{text-anchor:middle}#chart-ef132b7b-e509-41ea-8730-d2baa5ebc260 .title{text-anchor:middle}#chart-ef132b7b-e509-41ea-8730-d2baa5ebc260 .legends .legend text{fill-opacity:1}#chart-ef132b7b-e509-41ea-8730-d2baa5ebc260 .axis.x text{text-anchor:middle}#chart-ef132b7b-e509-41ea-8730-d2baa5ebc260 .axis.x:not(.web) text[transform]{text-anchor:start}#chart-ef132b7b-e509-41ea-8730-d2baa5ebc260 .axis.x:not(.web) text[transform].backwards{text-anchor:end}#chart-ef132b7b-e509-41ea-8730-d2baa5ebc260 .axis.y text{text-anchor:end}#chart-ef132b7b-e509-41ea-8730-d2baa5ebc260 .axis.y text[transform].backwards{text-anchor:start}#chart-ef132b7b-e509-41ea-8730-d2baa5ebc260 .axis.y2 text{text-anchor:start}#chart-ef132b7b-e509-41ea-8730-d2baa5ebc260 .axis.y2 text[transform].backwards{text-anchor:end}#chart-ef132b7b-e509-41ea-8730-d2baa5ebc260 .axis .guide.line{stroke-dasharray:4,4}#chart-ef132b7b-e509-41ea-8730-d2baa5ebc260 .axis .major.guide.line{stroke-dasharray:6,6}#chart-ef132b7b-e509-41ea-8730-d2baa5ebc260 .horizontal .axis.y .guide.line,#chart-ef132b7b-e509-41ea-8730-d2baa5ebc260 .horizontal .axis.y2 .guide.line,#chart-ef132b7b-e509-41ea-8730-d2baa5ebc260 .vertical .axis.x .guide.line{opacity:0}#chart-ef132b7b-e509-41ea-8730-d2baa5ebc260 .horizontal .axis.always_show .guide.line,#chart-ef132b7b-e509-41ea-8730-d2baa5ebc260 .vertical .axis.always_show .guide.line{opacity:1 !important}#chart-ef132b7b-e509-41ea-8730-d2baa5ebc260 .axis.y .guides:hover .guide.line,#chart-ef132b7b-e509-41ea-8730-d2baa5ebc260 .axis.y2 .guides:hover .guide.line,#chart-ef132b7b-e509-41ea-8730-d2baa5ebc260 .axis.x .guides:hover .guide.line{opacity:1}#chart-ef132b7b-e509-41ea-8730-d2baa5ebc260 .axis .guides:hover text{opacity:1}#chart-ef132b7b-e509-41ea-8730-d2baa5ebc260 .nofill{fill:none}#chart-ef132b7b-e509-41ea-8730-d2baa5ebc260 .subtle-fill{fill-opacity:.2}#chart-ef132b7b-e509-41ea-8730-d2baa5ebc260 .dot{stroke-width:1px;fill-opacity:1}#chart-ef132b7b-e509-41ea-8730-d2baa5ebc260 .dot.active{stroke-width:5px}#chart-ef132b7b-e509-41ea-8730-d2baa5ebc260 .dot.negative{fill:transparent}#chart-ef132b7b-e509-41ea-8730-d2baa5ebc260 text,#chart-ef132b7b-e509-41ea-8730-d2baa5ebc260 tspan{stroke:none !important}#chart-ef132b7b-e509-41ea-8730-d2baa5ebc260 .series text.active{opacity:1}#chart-ef132b7b-e509-41ea-8730-d2baa5ebc260 .tooltip rect{fill-opacity:.95;stroke-width:.5}#chart-ef132b7b-e509-41ea-8730-d2baa5ebc260 .tooltip text{fill-opacity:1}#chart-ef132b7b-e509-41ea-8730-d2baa5ebc260 .showable{visibility:hidden}#chart-ef132b7b-e509-41ea-8730-d2baa5ebc260 .showable.shown{visibility:visible}#chart-ef132b7b-e509-41ea-8730-d2baa5ebc260 .gauge-background{fill:rgba(229,229,229,1);stroke:none}#chart-ef132b7b-e509-41ea-8730-d2baa5ebc260 .bg-lines{stroke:rgba(249,249,249,1);stroke-width:2px}</style><script type="text/javascript">window.pygal = window.pygal || {};window.pygal.config = window.pygal.config || {};window.pygal.config['ef132b7b-e509-41ea-8730-d2baa5ebc260'] = {"dynamic_print_values": false, "truncate_label": null, "inner_radius": 0, "print_values": false, "xrange": null, "box_mode": "extremes", "title": null, "legend_at_bottom_columns": null, "height": 30, "legend_at_bottom": false, "show_legend": true, "show_dots": true, "explicit_size": false, "y_labels_major": null, "show_minor_x_labels": true, "width": 30, "force_uri_protocol": "https", "half_pie": false, "style": {"major_label_font_family": "Consolas, \"Liberation Mono\", Menlo, Courier, monospace", "title_font_family": "Consolas, \"Liberation Mono\", Menlo, Courier, monospace", "stroke_opacity": ".8", "legend_font_family": "Consolas, \"Liberation Mono\", Menlo, Courier, monospace", "colors": ["#F44336", "#3F51B5", "#009688", "#FFC107", "#FF5722", "#9C27B0", "#03A9F4", "#8BC34A", "#FF9800", "#E91E63", "#2196F3", "#4CAF50", "#FFEB3B", "#673AB7", "#00BCD4", "#CDDC39", "#9E9E9E", "#607D8B"], "legend_font_size": 14, "no_data_font_family": "Consolas, \"Liberation Mono\", Menlo, Courier, monospace", "major_label_font_size": 10, "value_background": "rgba(229, 229, 229, 1)", "ci_colors": [], "label_font_family": "Consolas, \"Liberation Mono\", Menlo, Courier, monospace", "label_font_size": 10, "tooltip_font_size": 14, "value_font_size": 16, "font_family": "Consolas, \"Liberation Mono\", Menlo, Courier, monospace", "opacity": ".7", "foreground": "rgba(0, 0, 0, .87)", "plot_background": "rgba(255, 255, 255, 1)", "value_label_font_size": 10, "value_label_font_family": "Consolas, \"Liberation Mono\", Menlo, Courier, monospace", "background": "rgba(249, 249, 249, 1)", "no_data_font_size": 64, "value_colors": [], "guide_stroke_dasharray": "4,4", "transition": "150ms", "foreground_subtle": "rgba(0, 0, 0, .54)", "value_font_family": "Consolas, \"Liberation Mono\", Menlo, Courier, monospace", "tooltip_font_family": "Consolas, \"Liberation Mono\", Menlo, Courier, monospace", "title_font_size": 16, "stroke_opacity_hover": ".9", "major_guide_stroke_dasharray": "6,6", "opacity_hover": ".8", "foreground_strong": "rgba(0, 0, 0, 1)"}, "x_label_rotation": 0, "fill": false, "missing_value_fill_truncation": "x", "zero": 0, "margin_right": null, "interpolation_parameters": {}, "x_labels_major": null, "rounded_bars": null, "show_y_labels": true, "dots_size": 2.5, "show_y_guides": true, "show_minor_y_labels": true, "x_labels": null, "y_title": null, "order_min": null, "formatter": null, "disable_xml_declaration": false, "strict": false, "css": ["file://style.css", "file://graph.css"], "tooltip_fancy_mode": true, "defs": [], "show_only_major_dots": false, "y_label_rotation": 0, "show_x_labels": true, "min_scale": 4, "show_x_guides": false, "spacing": 10, "x_labels_major_count": null, "pretty_print": false, "tooltip_border_radius": 0, "interpolate": null, "js": ["//kozea.github.io/pygal.js/2.0.x/pygal-tooltips.min.js"], "y_labels": null, "stroke_style": null, "print_labels": false, "interpolation_precision": 250, "x_title": null, "y_labels_major_every": null, "logarithmic": false, "legends": ["Free"], "max_scale": 16, "print_zeroes": true, "no_data_text": "No data", "truncate_legend": null, "x_labels_major_every": null, "secondary_range": null, "legend_box_size": 12, "no_prefix": false, "stroke": true, "stack_from_top": false, "include_x_axis": false, "range": null, "classes": ["pygal-chart"], "margin_top": null, "margin_left": null, "y_labels_major_count": null, "margin_bottom": null, "inverse_y_axis": false, "margin": 20, "allow_interruptions": false, "print_values_position": "center"}</script><script type="text/javascript" xlink:href="https://kozea.github.io/pygal.js/2.0.x/pygal-tooltips.min.js"/></defs><title>Pygal</title><g class="graph bar-graph vertical"><rect class="background" height="30" width="30" x="0" y="0"/><g class="plot" transform="translate(103, 20)"><rect class="background" height="10" width="93.6" x="-93.6" y="-10"/><g class="axis y"><g class="guides"><path class="axis major line" d="M0.000000 -9.807692 h-93.600000"/><text class="major" x="-5" y="-6.30769230769">0</text><title>0</title></g><g class="guides"><path class="guide line" d="M0.000000 -9.166667 h-93.600000"/><text class="" x="-5" y="-5.66666666667">0.2</text><title>0.2</title></g><g class="guides"><path class="guide line" d="M0.000000 -8.525641 h-93.600000"/><text class="" x="-5" y="-5.02564102564">0.4</text><title>0.4</title></g><g class="guides"><path class="guide line" d="M0.000000 -7.884615 h-93.600000"/><text class="" x="-5" y="-4.38461538462">0.6</text><title>0.6</title></g><g class="guides"><path class="guide line" d="M0.000000 -7.243590 h-93.600000"/><text class="" x="-5" y="-3.74358974359">0.8</text><title>0.8</title></g><g class="guides"><path class="major guide line" d="M0.000000 -6.602564 h-93.600000"/><text class="major" x="-5" y="-3.10256410256">1</text><title>1</title></g><g class="guides"><path class="guide line" d="M0.000000 -5.961538 h-93.600000"/><text class="" x="-5" y="-2.46153846154">1.2</text><title>1.2</title></g><g class="guides"><path class="guide line" d="M0.000000 -5.320513 h-93.600000"/><text class="" x="-5" y="-1.82051282051">1.4</text><title>1.4</title></g><g class="guides"><path class="guide line" d="M0.000000 -4.679487 h-93.600000"/><text class="" x="-5" y="-1.17948717949">1.6</text><title>1.6</title></g><g class="guides"><path class="guide line" d="M0.000000 -4.038462 h-93.600000"/><text class="" x="-5" y="-0.538461538462">1.8</text><title>1.8</title></g><g class="guides"><path class="major guide line" d="M0.000000 -3.397436 h-93.600000"/><text class="major" x="-5" y="0.102564102564">2</text><title>2</title></g><g class="guides"><path class="guide line" d="M0.000000 -2.756410 h-93.600000"/><text class="" x="-5" y="0.74358974359">2.2</text><title>2.2</title></g><g class="guides"><path class="guide line" d="M0.000000 -2.115385 h-93.600000"/><text class="" x="-5" y="1.38461538462">2.4</text><title>2.4</title></g><g class="guides"><path class="guide line" d="M0.000000 -1.474359 h-93.600000"/><text class="" x="-5" y="2.02564102564">2.6</text><title>2.6</title></g><g class="guides"><path class="guide line" d="M0.000000 -0.833333 h-93.600000"/><text class="" x="-5" y="2.66666666667">2.8</text><title>2.8</title></g><g class="guides"><path class="major guide line" d="M0.000000 -0.192308 h-93.600000"/><text class="major" x="-5" y="3.30769230769">3</text><title>3</title></g></g><g class="series serie-0 color-0"><g class="bars"><g class="bar"><rect class="rect reactive tooltip-trigger" height="3.20512820513" rx="0" ry="0" width="23.232" x="-28.416" y="-9.80769230769"/><desc class="value">1</desc><desc class="x centered">-16.8</desc><desc class="y centered">-8.20512820513</desc></g><g class="bar"><rect class="rect reactive tooltip-trigger" height="6.41025641026" rx="0" ry="0" width="23.232" x="-58.416" y="-9.80769230769"/><desc class="value">2</desc><desc class="x centered">-46.8</desc><desc class="y centered">-6.60256410256</desc></g><g class="bar"><rect class="rect reactive tooltip-trigger" height="9.61538461538" rx="0" ry="0" width="23.232" x="-88.416" y="-9.80769230769"/><desc class="value">3</desc><desc class="x centered">-76.8</desc><desc class="y centered">-5.0</desc></g></g></g></g><g class="titles"/><g class="plot overlay" transform="translate(103, 20)"><g class="series serie-0 color-0"/></g><g class="plot text-overlay" transform="translate(103, 20)"><g class="series serie-0 color-0"/></g><g class="plot tooltip-overlay" transform="translate(103, 20)"><g class="tooltip" style="opacity: 0" transform="translate(0 0)"><rect class="tooltip-box" height="0" rx="0" ry="0" width="0"/><g class="text"/></g></g><g class="legends" transform="translate(10, 30)"><g class="legend reactive activate-serie" id="activate-serie-0"><rect class="color-0 reactive" height="12" width="12" x="-0.0" y="1.0"/><text x="17.0" y="11.2">Free</text></g></g><g class="legends" transform="translate(20, 30)"/></g></svg>